%YAML 1.1
%TAG !u! tag:unity3d.com,2011:
--- !u!29 &1
SceneSettings:
  m_ObjectHideFlags: 0
  m_PVSData: 
  m_PVSObjectsArray: []
  m_PVSPortalsArray: []
  m_OcclusionBakeSettings:
    smallestOccluder: 5
    smallestHole: .25
    backfaceThreshold: 100
--- !u!104 &2
RenderSettings:
  m_Fog: 0
  m_FogColor: {r: .5, g: .5, b: .5, a: 1}
  m_FogMode: 3
  m_FogDensity: .00999999978
  m_LinearFogStart: 0
  m_LinearFogEnd: 300
  m_AmbientLight: {r: .200000003, g: .200000003, b: .200000003, a: 1}
  m_SkyboxMaterial: {fileID: 0}
  m_HaloStrength: .5
  m_FlareStrength: 1
  m_FlareFadeSpeed: 3
  m_HaloTexture: {fileID: 0}
  m_SpotCookie: {fileID: 0}
  m_ObjectHideFlags: 0
--- !u!127 &3
LevelGameManager:
  m_ObjectHideFlags: 0
--- !u!157 &4
LightmapSettings:
  m_ObjectHideFlags: 0
  m_LightProbes: {fileID: 0}
  m_Lightmaps: []
  m_LightmapsMode: 1
  m_BakedColorSpace: 0
  m_UseDualLightmapsInForward: 0
  m_LightmapEditorSettings:
    m_Resolution: 50
    m_LastUsedResolution: 0
    m_TextureWidth: 1024
    m_TextureHeight: 1024
    m_BounceBoost: 1
    m_BounceIntensity: 1
    m_SkyLightColor: {r: .860000014, g: .930000007, b: 1, a: 1}
    m_SkyLightIntensity: 0
    m_Quality: 0
    m_Bounces: 1
    m_FinalGatherRays: 1000
    m_FinalGatherContrastThreshold: .0500000007
    m_FinalGatherGradientThreshold: 0
    m_FinalGatherInterpolationPoints: 15
    m_AOAmount: 0
    m_AOMaxDistance: .100000001
    m_AOContrast: 1
    m_LODSurfaceMappingDistance: 1
    m_Padding: 0
    m_TextureCompression: 0
    m_LockAtlas: 0
--- !u!196 &5
NavMeshSettings:
  m_ObjectHideFlags: 0
  m_BuildSettings:
    agentRadius: .5
    agentHeight: 2
    agentSlope: 45
    agentClimb: .400000006
    ledgeDropHeight: 0
    maxJumpAcrossDistance: 0
    accuratePlacement: 0
    minRegionArea: 2
    widthInaccuracy: 16.666666
    heightInaccuracy: 10
  m_NavMesh: {fileID: 0}
--- !u!1 &115426839
GameObject:
  m_ObjectHideFlags: 0
  m_PrefabParentObject: {fileID: 0}
  m_PrefabInternal: {fileID: 0}
  serializedVersion: 4
  m_Component:
  - 4: {fileID: 115426840}
  m_Layer: 0
  m_Name: FrontLeftFirePoint
  m_TagString: Untagged
  m_Icon: {fileID: 0}
  m_NavMeshLayer: 0
  m_StaticEditorFlags: 0
  m_IsActive: 1
--- !u!4 &115426840
Transform:
  m_ObjectHideFlags: 0
  m_PrefabParentObject: {fileID: 0}
  m_PrefabInternal: {fileID: 0}
  m_GameObject: {fileID: 115426839}
  m_LocalRotation: {x: 0, y: 0, z: 0, w: 1}
  m_LocalPosition: {x: -.0540914088, y: .148228645, z: .0249938965}
  m_LocalScale: {x: 1.33333337, y: 1.33333337, z: 1.33333337}
  m_Children: []
  m_Father: {fileID: 247017688}
  m_RootOrder: 1
--- !u!1 &247017686
GameObject:
  m_ObjectHideFlags: 0
  m_PrefabParentObject: {fileID: 0}
  m_PrefabInternal: {fileID: 0}
  serializedVersion: 4
  m_Component:
  - 4: {fileID: 247017688}
  - 212: {fileID: 247017687}
  - 114: {fileID: 247017689}
  - 114: {fileID: 247017690}
  - 50: {fileID: 247017691}
  m_Layer: 0
  m_Name: TestingShip
  m_TagString: Untagged
  m_Icon: {fileID: 0}
  m_NavMeshLayer: 0
  m_StaticEditorFlags: 0
  m_IsActive: 1
--- !u!212 &247017687
SpriteRenderer:
  m_ObjectHideFlags: 0
  m_PrefabParentObject: {fileID: 0}
  m_PrefabInternal: {fileID: 0}
  m_GameObject: {fileID: 247017686}
  m_Enabled: 1
  m_CastShadows: 0
  m_ReceiveShadows: 0
  m_LightmapIndex: 255
  m_LightmapTilingOffset: {x: 1, y: 1, z: 0, w: 0}
  m_Materials:
  - {fileID: 10754, guid: 0000000000000000e000000000000000, type: 0}
  m_SubsetIndices: 
  m_StaticBatchRoot: {fileID: 0}
  m_UseLightProbes: 0
  m_LightProbeAnchor: {fileID: 0}
  m_ScaleInLightmap: 1
  m_SortingLayerID: 0
  m_SortingOrder: 0
  m_Sprite: {fileID: 21300000, guid: 10bbd5ba597a04990bd8c056ad808f06, type: 3}
  m_Color: {r: 1, g: 1, b: 1, a: 1}
--- !u!4 &247017688
Transform:
  m_ObjectHideFlags: 0
  m_PrefabParentObject: {fileID: 0}
  m_PrefabInternal: {fileID: 0}
  m_GameObject: {fileID: 247017686}
  m_LocalRotation: {x: 0, y: 0, z: 0, w: 1}
<<<<<<< HEAD
  m_LocalPosition: {x: .607491791, y: -.930315733, z: -1.90734863e-05}
=======
<<<<<<< HEAD
  m_LocalPosition: {x: .607491791, y: -.930315733, z: -1.90734863e-05}
=======
  m_LocalPosition: {x: .0822352171, y: -.440847039, z: -37.9934273}
>>>>>>> aca9c1a62e7cc9472c711fb062eaf94aa770cb64
>>>>>>> e503ccde60498ca6ad7609b7a5bd917cf9295aeb
  m_LocalScale: {x: .75, y: .75, z: .75}
  m_Children:
  - {fileID: 559734441}
  - {fileID: 115426840}
  - {fileID: 1139017407}
  - {fileID: 697798010}
<<<<<<< HEAD
  m_Father: {fileID: 1380526495}
  m_RootOrder: 4
=======
<<<<<<< HEAD
  m_Father: {fileID: 1380526495}
  m_RootOrder: 4
=======
  m_Father: {fileID: 0}
  m_RootOrder: 6
>>>>>>> aca9c1a62e7cc9472c711fb062eaf94aa770cb64
>>>>>>> e503ccde60498ca6ad7609b7a5bd917cf9295aeb
--- !u!114 &247017689
MonoBehaviour:
  m_ObjectHideFlags: 0
  m_PrefabParentObject: {fileID: 0}
  m_PrefabInternal: {fileID: 0}
  m_GameObject: {fileID: 247017686}
  m_Enabled: 1
  m_EditorHideFlags: 0
  m_Script: {fileID: 11500000, guid: 6e724307282ac4141955324e9a6fe30d, type: 3}
  m_Name: 
  m_EditorClassIdentifier: 
  moveSpeed: .100000001
  cam: {fileID: 504615127}
--- !u!114 &247017690
MonoBehaviour:
  m_ObjectHideFlags: 0
  m_PrefabParentObject: {fileID: 0}
  m_PrefabInternal: {fileID: 0}
  m_GameObject: {fileID: 247017686}
  m_Enabled: 1
  m_EditorHideFlags: 0
  m_Script: {fileID: 11500000, guid: 9de115d9ef1fa4893963dffd1a88acc8, type: 3}
  m_Name: 
  m_EditorClassIdentifier: 
  fireRate: 20
  damage: 10
  notToHit:
    serializedVersion: 2
    m_Bits: 4
  altGuns: -1
  projectile: {fileID: 100000, guid: d4f174a24c74e4bf0a33c19fb939872c, type: 2}
--- !u!50 &247017691
Rigidbody2D:
  m_ObjectHideFlags: 0
  m_PrefabParentObject: {fileID: 0}
  m_PrefabInternal: {fileID: 0}
  m_GameObject: {fileID: 247017686}
  m_Mass: 1
  m_LinearDrag: 0
  m_AngularDrag: .0500000007
  m_GravityScale: 1
  m_FixedAngle: 0
  m_IsKinematic: 1
  m_Interpolate: 0
  m_SleepingMode: 1
  m_CollisionDetection: 0
<<<<<<< HEAD
--- !u!1 &378049618
=======
<<<<<<< HEAD
=======
--- !u!1 &467762589
>>>>>>> e503ccde60498ca6ad7609b7a5bd917cf9295aeb
GameObject:
  m_ObjectHideFlags: 0
  m_PrefabParentObject: {fileID: 0}
  m_PrefabInternal: {fileID: 0}
  serializedVersion: 4
  m_Component:
<<<<<<< HEAD
  - 4: {fileID: 378049619}
  m_Layer: 0
  m_Name: 1.3
=======
  - 4: {fileID: 467762592}
  - 212: {fileID: 467762591}
  - 114: {fileID: 467762590}
  m_Layer: 0
  m_Name: TestingEnemy
>>>>>>> e503ccde60498ca6ad7609b7a5bd917cf9295aeb
  m_TagString: Untagged
  m_Icon: {fileID: 0}
  m_NavMeshLayer: 0
  m_StaticEditorFlags: 0
  m_IsActive: 1
<<<<<<< HEAD
--- !u!4 &378049619
=======
--- !u!114 &467762590
MonoBehaviour:
  m_ObjectHideFlags: 0
  m_PrefabParentObject: {fileID: 0}
  m_PrefabInternal: {fileID: 0}
  m_GameObject: {fileID: 467762589}
  m_Enabled: 1
  m_EditorHideFlags: 0
  m_Script: {fileID: 11500000, guid: fbcb26b0f299f433282a6a4afab24f18, type: 3}
  m_Name: 
  m_EditorClassIdentifier: 
  moveSpeed: 0
--- !u!212 &467762591
SpriteRenderer:
  m_ObjectHideFlags: 0
  m_PrefabParentObject: {fileID: 0}
  m_PrefabInternal: {fileID: 0}
  m_GameObject: {fileID: 467762589}
  m_Enabled: 1
  m_CastShadows: 0
  m_ReceiveShadows: 0
  m_LightmapIndex: 255
  m_LightmapTilingOffset: {x: 1, y: 1, z: 0, w: 0}
  m_Materials:
  - {fileID: 10754, guid: 0000000000000000e000000000000000, type: 0}
  m_SubsetIndices: 
  m_StaticBatchRoot: {fileID: 0}
  m_UseLightProbes: 0
  m_LightProbeAnchor: {fileID: 0}
  m_ScaleInLightmap: 1
  m_SortingLayerID: 0
  m_SortingOrder: 0
  m_Sprite: {fileID: 21300000, guid: 54a312fbd976842f1b845a88a6563447, type: 3}
  m_Color: {r: 1, g: 1, b: 1, a: 1}
--- !u!4 &467762592
>>>>>>> e503ccde60498ca6ad7609b7a5bd917cf9295aeb
Transform:
  m_ObjectHideFlags: 0
  m_PrefabParentObject: {fileID: 0}
  m_PrefabInternal: {fileID: 0}
<<<<<<< HEAD
  m_GameObject: {fileID: 378049618}
  m_LocalRotation: {x: 0, y: 0, z: 0, w: 1}
  m_LocalPosition: {x: 2.66481876, y: .818011284, z: 0}
  m_LocalScale: {x: 1, y: 1, z: 1}
  m_Children: []
  m_Father: {fileID: 1583106740}
  m_RootOrder: 2
=======
  m_GameObject: {fileID: 467762589}
  m_LocalRotation: {x: 0, y: 0, z: 0, w: 1}
  m_LocalPosition: {x: -1.18956935, y: .899999976, z: -37.9934273}
  m_LocalScale: {x: 1, y: 1, z: 1}
  m_Children: []
  m_Father: {fileID: 0}
  m_RootOrder: 5
>>>>>>> aca9c1a62e7cc9472c711fb062eaf94aa770cb64
>>>>>>> e503ccde60498ca6ad7609b7a5bd917cf9295aeb
--- !u!1 &504615123
GameObject:
  m_ObjectHideFlags: 0
  m_PrefabParentObject: {fileID: 0}
  m_PrefabInternal: {fileID: 0}
  serializedVersion: 4
  m_Component:
  - 4: {fileID: 504615128}
  - 20: {fileID: 504615127}
  - 124: {fileID: 504615126}
  - 92: {fileID: 504615125}
  - 81: {fileID: 504615124}
  m_Layer: 0
  m_Name: Camera
  m_TagString: Untagged
  m_Icon: {fileID: 0}
  m_NavMeshLayer: 0
  m_StaticEditorFlags: 0
  m_IsActive: 1
--- !u!81 &504615124
AudioListener:
  m_ObjectHideFlags: 0
  m_PrefabParentObject: {fileID: 0}
  m_PrefabInternal: {fileID: 0}
  m_GameObject: {fileID: 504615123}
  m_Enabled: 1
--- !u!92 &504615125
Behaviour:
  m_ObjectHideFlags: 0
  m_PrefabParentObject: {fileID: 0}
  m_PrefabInternal: {fileID: 0}
  m_GameObject: {fileID: 504615123}
  m_Enabled: 1
--- !u!124 &504615126
Behaviour:
  m_ObjectHideFlags: 0
  m_PrefabParentObject: {fileID: 0}
  m_PrefabInternal: {fileID: 0}
  m_GameObject: {fileID: 504615123}
  m_Enabled: 1
--- !u!20 &504615127
Camera:
  m_ObjectHideFlags: 0
  m_PrefabParentObject: {fileID: 0}
  m_PrefabInternal: {fileID: 0}
  m_GameObject: {fileID: 504615123}
  m_Enabled: 1
  serializedVersion: 2
  m_ClearFlags: 1
  m_BackGroundColor: {r: .192156866, g: .301960796, b: .474509805, a: .0196078438}
  m_NormalizedViewPortRect:
    serializedVersion: 2
    x: 0
    y: 0
    width: 1
    height: 1
  near clip plane: .300000012
  far clip plane: 1000
  field of view: 31.7201633
  orthographic: 0
  orthographic size: 5
  m_Depth: 0
  m_CullingMask:
    serializedVersion: 2
    m_Bits: 4294967295
  m_RenderingPath: -1
  m_TargetTexture: {fileID: 0}
  m_TargetDisplay: 0
  m_HDR: 0
  m_OcclusionCulling: 1
  m_StereoConvergence: 10
  m_StereoSeparation: .0219999999
--- !u!4 &504615128
Transform:
  m_ObjectHideFlags: 0
  m_PrefabParentObject: {fileID: 0}
  m_PrefabInternal: {fileID: 0}
  m_GameObject: {fileID: 504615123}
  m_LocalRotation: {x: 0, y: 0, z: 0, w: 1}
<<<<<<< HEAD
  m_LocalPosition: {x: .602425516, y: -.105586141, z: -3.42378235}
  m_LocalScale: {x: 1, y: 1, z: 1}
  m_Children: []
  m_Father: {fileID: 1380526495}
=======
<<<<<<< HEAD
  m_LocalPosition: {x: .602425516, y: -.489468664, z: -2.03592682}
  m_LocalScale: {x: 1, y: 1, z: 1}
  m_Children: []
  m_Father: {fileID: 1380526495}
=======
  m_LocalPosition: {x: .0771689415, y: 0, z: -40.029335}
  m_LocalScale: {x: 1, y: 1, z: 1}
  m_Children: []
  m_Father: {fileID: 0}
>>>>>>> aca9c1a62e7cc9472c711fb062eaf94aa770cb64
>>>>>>> e503ccde60498ca6ad7609b7a5bd917cf9295aeb
  m_RootOrder: 0
--- !u!1 &559734440
GameObject:
  m_ObjectHideFlags: 0
  m_PrefabParentObject: {fileID: 0}
  m_PrefabInternal: {fileID: 0}
  serializedVersion: 4
  m_Component:
  - 4: {fileID: 559734441}
  m_Layer: 0
  m_Name: FrontRightFirePoint
  m_TagString: Untagged
  m_Icon: {fileID: 0}
  m_NavMeshLayer: 0
  m_StaticEditorFlags: 0
  m_IsActive: 1
--- !u!4 &559734441
Transform:
  m_ObjectHideFlags: 0
  m_PrefabParentObject: {fileID: 0}
  m_PrefabInternal: {fileID: 0}
  m_GameObject: {fileID: 559734440}
  m_LocalRotation: {x: 0, y: 0, z: 0, w: 1}
  m_LocalPosition: {x: .0636227131, y: .148321956, z: .0249938965}
  m_LocalScale: {x: 1.33333337, y: 1.33333337, z: 1.33333337}
  m_Children: []
  m_Father: {fileID: 247017688}
  m_RootOrder: 0
--- !u!1 &697798009
GameObject:
  m_ObjectHideFlags: 0
  m_PrefabParentObject: {fileID: 0}
  m_PrefabInternal: {fileID: 0}
  serializedVersion: 4
  m_Component:
  - 4: {fileID: 697798010}
  m_Layer: 0
  m_Name: FrontFarRightFirePoint
  m_TagString: Untagged
  m_Icon: {fileID: 0}
  m_NavMeshLayer: 0
  m_StaticEditorFlags: 0
  m_IsActive: 1
--- !u!4 &697798010
Transform:
  m_ObjectHideFlags: 0
  m_PrefabParentObject: {fileID: 0}
  m_PrefabInternal: {fileID: 0}
  m_GameObject: {fileID: 697798009}
  m_LocalRotation: {x: 0, y: 0, z: 0, w: 1}
  m_LocalPosition: {x: .0852334127, y: .0485021286, z: .0249938965}
  m_LocalScale: {x: 1.33333337, y: 1.33333337, z: 1.33333337}
  m_Children: []
  m_Father: {fileID: 247017688}
  m_RootOrder: 3
<<<<<<< HEAD
--- !u!1 &824651695
=======
<<<<<<< HEAD
=======
--- !u!1 &940405116
>>>>>>> e503ccde60498ca6ad7609b7a5bd917cf9295aeb
GameObject:
  m_ObjectHideFlags: 0
  m_PrefabParentObject: {fileID: 0}
  m_PrefabInternal: {fileID: 0}
  serializedVersion: 4
  m_Component:
<<<<<<< HEAD
  - 4: {fileID: 824651696}
  m_Layer: 0
  m_Name: 1.1
=======
  - 4: {fileID: 940405120}
  - 33: {fileID: 940405119}
  - 65: {fileID: 940405118}
  - 23: {fileID: 940405117}
  m_Layer: 0
  m_Name: Bounries
>>>>>>> e503ccde60498ca6ad7609b7a5bd917cf9295aeb
  m_TagString: Untagged
  m_Icon: {fileID: 0}
  m_NavMeshLayer: 0
  m_StaticEditorFlags: 0
  m_IsActive: 1
<<<<<<< HEAD
--- !u!4 &824651696
=======
--- !u!23 &940405117
Renderer:
  m_ObjectHideFlags: 0
  m_PrefabParentObject: {fileID: 0}
  m_PrefabInternal: {fileID: 0}
  m_GameObject: {fileID: 940405116}
  m_Enabled: 0
  m_CastShadows: 1
  m_ReceiveShadows: 1
  m_LightmapIndex: 255
  m_LightmapTilingOffset: {x: 1, y: 1, z: 0, w: 0}
  m_Materials:
  - {fileID: 10302, guid: 0000000000000000f000000000000000, type: 0}
  m_SubsetIndices: 
  m_StaticBatchRoot: {fileID: 0}
  m_UseLightProbes: 0
  m_LightProbeAnchor: {fileID: 0}
  m_ScaleInLightmap: 1
  m_SortingLayerID: 0
  m_SortingOrder: 0
--- !u!65 &940405118
BoxCollider:
  m_ObjectHideFlags: 0
  m_PrefabParentObject: {fileID: 0}
  m_PrefabInternal: {fileID: 0}
  m_GameObject: {fileID: 940405116}
  m_Material: {fileID: 0}
  m_IsTrigger: 0
  m_Enabled: 1
  serializedVersion: 2
  m_Size: {x: 1, y: 1, z: 1}
  m_Center: {x: 0, y: 0, z: 0}
--- !u!33 &940405119
MeshFilter:
  m_ObjectHideFlags: 0
  m_PrefabParentObject: {fileID: 0}
  m_PrefabInternal: {fileID: 0}
  m_GameObject: {fileID: 940405116}
  m_Mesh: {fileID: 10202, guid: 0000000000000000e000000000000000, type: 0}
--- !u!4 &940405120
>>>>>>> e503ccde60498ca6ad7609b7a5bd917cf9295aeb
Transform:
  m_ObjectHideFlags: 0
  m_PrefabParentObject: {fileID: 0}
  m_PrefabInternal: {fileID: 0}
<<<<<<< HEAD
  m_GameObject: {fileID: 824651695}
  m_LocalRotation: {x: 0, y: 0, z: 0, w: 1}
  m_LocalPosition: {x: .124395788, y: .530785084, z: 0}
  m_LocalScale: {x: 1, y: 1, z: 1}
  m_Children: []
  m_Father: {fileID: 1583106740}
  m_RootOrder: 0
=======
  m_GameObject: {fileID: 940405116}
  m_LocalRotation: {x: 0, y: 0, z: 0, w: 1}
  m_LocalPosition: {x: .0771689415, y: -.0393044949, z: -36.7891312}
  m_LocalScale: {x: 3.72882318, y: 1.48298991, z: 1}
  m_Children: []
  m_Father: {fileID: 0}
  m_RootOrder: 4
>>>>>>> aca9c1a62e7cc9472c711fb062eaf94aa770cb64
>>>>>>> e503ccde60498ca6ad7609b7a5bd917cf9295aeb
--- !u!1 &950677712
GameObject:
  m_ObjectHideFlags: 0
  m_PrefabParentObject: {fileID: 0}
  m_PrefabInternal: {fileID: 0}
  serializedVersion: 4
  m_Component:
  - 4: {fileID: 950677713}
  - 33: {fileID: 950677717}
  - 65: {fileID: 950677716}
  - 23: {fileID: 950677715}
  - 114: {fileID: 950677714}
  m_Layer: 0
  m_Name: background2
  m_TagString: Untagged
  m_Icon: {fileID: 0}
  m_NavMeshLayer: 0
  m_StaticEditorFlags: 0
  m_IsActive: 1
--- !u!4 &950677713
Transform:
  m_ObjectHideFlags: 0
  m_PrefabParentObject: {fileID: 0}
  m_PrefabInternal: {fileID: 0}
  m_GameObject: {fileID: 950677712}
  m_LocalRotation: {x: 0, y: 0, z: .70710659, w: -.707106948}
<<<<<<< HEAD
=======
<<<<<<< HEAD
>>>>>>> e503ccde60498ca6ad7609b7a5bd917cf9295aeb
  m_LocalPosition: {x: .553813398, y: 2.61053133, z: 1.99777603}
  m_LocalScale: {x: 8.27359772, y: 5.13684511, z: 1}
  m_Children: []
  m_Father: {fileID: 1380526495}
<<<<<<< HEAD
=======
=======
  m_LocalPosition: {x: .0285568237, y: 3.0999999, z: -35.9956322}
  m_LocalScale: {x: 8.27359772, y: 5.13684511, z: 1}
  m_Children: []
  m_Father: {fileID: 0}
>>>>>>> aca9c1a62e7cc9472c711fb062eaf94aa770cb64
>>>>>>> e503ccde60498ca6ad7609b7a5bd917cf9295aeb
  m_RootOrder: 2
--- !u!114 &950677714
MonoBehaviour:
  m_ObjectHideFlags: 0
  m_PrefabParentObject: {fileID: 0}
  m_PrefabInternal: {fileID: 0}
  m_GameObject: {fileID: 950677712}
  m_Enabled: 1
  m_EditorHideFlags: 0
  m_Script: {fileID: 11500000, guid: 4f802adb2781345c1b248dac03c54258, type: 3}
  m_Name: 
  m_EditorClassIdentifier: 
  speed: 1
--- !u!23 &950677715
Renderer:
  m_ObjectHideFlags: 0
  m_PrefabParentObject: {fileID: 0}
  m_PrefabInternal: {fileID: 0}
  m_GameObject: {fileID: 950677712}
  m_Enabled: 1
  m_CastShadows: 1
  m_ReceiveShadows: 1
  m_LightmapIndex: 255
  m_LightmapTilingOffset: {x: 1, y: 1, z: 0, w: 0}
  m_Materials:
  - {fileID: 2100000, guid: a6203cd42afe74a0b8632d55c12fde36, type: 2}
  m_SubsetIndices: 
  m_StaticBatchRoot: {fileID: 0}
  m_UseLightProbes: 0
  m_LightProbeAnchor: {fileID: 0}
  m_ScaleInLightmap: 1
  m_SortingLayerID: 0
  m_SortingOrder: 0
--- !u!65 &950677716
BoxCollider:
  m_ObjectHideFlags: 0
  m_PrefabParentObject: {fileID: 0}
  m_PrefabInternal: {fileID: 0}
  m_GameObject: {fileID: 950677712}
  m_Material: {fileID: 0}
  m_IsTrigger: 0
  m_Enabled: 1
  serializedVersion: 2
  m_Size: {x: 1, y: 1, z: 1}
  m_Center: {x: 0, y: 0, z: 0}
--- !u!33 &950677717
MeshFilter:
  m_ObjectHideFlags: 0
  m_PrefabParentObject: {fileID: 0}
  m_PrefabInternal: {fileID: 0}
  m_GameObject: {fileID: 950677712}
  m_Mesh: {fileID: 10202, guid: 0000000000000000e000000000000000, type: 0}
--- !u!1 &952101468
GameObject:
  m_ObjectHideFlags: 0
  m_PrefabParentObject: {fileID: 0}
  m_PrefabInternal: {fileID: 0}
  serializedVersion: 4
  m_Component:
  - 4: {fileID: 952101470}
  - 108: {fileID: 952101469}
  m_Layer: 0
  m_Name: Point light
  m_TagString: Untagged
  m_Icon: {fileID: 0}
  m_NavMeshLayer: 0
  m_StaticEditorFlags: 0
  m_IsActive: 1
--- !u!108 &952101469
Light:
  m_ObjectHideFlags: 0
  m_PrefabParentObject: {fileID: 0}
  m_PrefabInternal: {fileID: 0}
  m_GameObject: {fileID: 952101468}
  m_Enabled: 1
  serializedVersion: 3
  m_Type: 2
  m_Color: {r: 1, g: 1, b: 1, a: 1}
  m_Intensity: 1
  m_Range: 10
  m_SpotAngle: 30
  m_CookieSize: 10
  m_Shadows:
    m_Type: 0
    m_Resolution: -1
    m_Strength: 1
    m_Bias: .0500000007
    m_Softness: 4
    m_SoftnessFade: 1
  m_Cookie: {fileID: 0}
  m_DrawHalo: 0
  m_ActuallyLightmapped: 0
  m_Flare: {fileID: 0}
  m_RenderMode: 0
  m_CullingMask:
    serializedVersion: 2
    m_Bits: 4294967295
  m_Lightmapping: 1
  m_ShadowSamples: 1
  m_ShadowRadius: 0
  m_ShadowAngle: 0
  m_IndirectIntensity: 1
  m_AreaSize: {x: 1, y: 1}
--- !u!4 &952101470
Transform:
  m_ObjectHideFlags: 0
  m_PrefabParentObject: {fileID: 0}
  m_PrefabInternal: {fileID: 0}
  m_GameObject: {fileID: 952101468}
  m_LocalRotation: {x: 0, y: 0, z: 0, w: 1}
<<<<<<< HEAD
=======
<<<<<<< HEAD
>>>>>>> e503ccde60498ca6ad7609b7a5bd917cf9295aeb
  m_LocalPosition: {x: .0809831321, y: -.489468664, z: -1.20046997}
  m_LocalScale: {x: 1, y: 1, z: 1}
  m_Children: []
  m_Father: {fileID: 1380526495}
<<<<<<< HEAD
=======
=======
  m_LocalPosition: {x: -.444273442, y: 0, z: -39.1938782}
  m_LocalScale: {x: 1, y: 1, z: 1}
  m_Children: []
  m_Father: {fileID: 0}
>>>>>>> aca9c1a62e7cc9472c711fb062eaf94aa770cb64
>>>>>>> e503ccde60498ca6ad7609b7a5bd917cf9295aeb
  m_RootOrder: 3
--- !u!1 &1009094245
GameObject:
  m_ObjectHideFlags: 0
  m_PrefabParentObject: {fileID: 0}
  m_PrefabInternal: {fileID: 0}
  serializedVersion: 4
  m_Component:
  - 4: {fileID: 1009094246}
  - 33: {fileID: 1009094249}
  - 65: {fileID: 1009094248}
  - 23: {fileID: 1009094247}
  - 114: {fileID: 1009094250}
  m_Layer: 0
  m_Name: background1
  m_TagString: Untagged
  m_Icon: {fileID: 0}
  m_NavMeshLayer: 0
  m_StaticEditorFlags: 0
  m_IsActive: 1
--- !u!4 &1009094246
Transform:
  m_ObjectHideFlags: 0
  m_PrefabParentObject: {fileID: 0}
  m_PrefabInternal: {fileID: 0}
  m_GameObject: {fileID: 1009094245}
  m_LocalRotation: {x: 0, y: 0, z: .70710659, w: -.707106948}
<<<<<<< HEAD
=======
<<<<<<< HEAD
>>>>>>> e503ccde60498ca6ad7609b7a5bd917cf9295aeb
  m_LocalPosition: {x: .553808928, y: 10.8805313, z: 1.99777603}
  m_LocalScale: {x: 8.27359772, y: 5.13684511, z: 1}
  m_Children: []
  m_Father: {fileID: 1380526495}
<<<<<<< HEAD
=======
=======
  m_LocalPosition: {x: .0285523813, y: 11.3699999, z: -35.9956322}
  m_LocalScale: {x: 8.27359772, y: 5.13684511, z: 1}
  m_Children: []
  m_Father: {fileID: 0}
>>>>>>> aca9c1a62e7cc9472c711fb062eaf94aa770cb64
>>>>>>> e503ccde60498ca6ad7609b7a5bd917cf9295aeb
  m_RootOrder: 1
--- !u!23 &1009094247
Renderer:
  m_ObjectHideFlags: 0
  m_PrefabParentObject: {fileID: 0}
  m_PrefabInternal: {fileID: 0}
  m_GameObject: {fileID: 1009094245}
  m_Enabled: 1
  m_CastShadows: 1
  m_ReceiveShadows: 1
  m_LightmapIndex: 255
  m_LightmapTilingOffset: {x: 1, y: 1, z: 0, w: 0}
  m_Materials:
  - {fileID: 2100000, guid: a6203cd42afe74a0b8632d55c12fde36, type: 2}
  m_SubsetIndices: 
  m_StaticBatchRoot: {fileID: 0}
  m_UseLightProbes: 0
  m_LightProbeAnchor: {fileID: 0}
  m_ScaleInLightmap: 1
  m_SortingLayerID: 0
  m_SortingOrder: 0
--- !u!65 &1009094248
BoxCollider:
  m_ObjectHideFlags: 0
  m_PrefabParentObject: {fileID: 0}
  m_PrefabInternal: {fileID: 0}
  m_GameObject: {fileID: 1009094245}
  m_Material: {fileID: 0}
  m_IsTrigger: 0
  m_Enabled: 1
  serializedVersion: 2
  m_Size: {x: 1, y: 1, z: 1}
  m_Center: {x: 0, y: 0, z: 0}
--- !u!33 &1009094249
MeshFilter:
  m_ObjectHideFlags: 0
  m_PrefabParentObject: {fileID: 0}
  m_PrefabInternal: {fileID: 0}
  m_GameObject: {fileID: 1009094245}
  m_Mesh: {fileID: 10202, guid: 0000000000000000e000000000000000, type: 0}
--- !u!114 &1009094250
MonoBehaviour:
  m_ObjectHideFlags: 0
  m_PrefabParentObject: {fileID: 0}
  m_PrefabInternal: {fileID: 0}
  m_GameObject: {fileID: 1009094245}
  m_Enabled: 1
  m_EditorHideFlags: 0
  m_Script: {fileID: 11500000, guid: 4f802adb2781345c1b248dac03c54258, type: 3}
  m_Name: 
  m_EditorClassIdentifier: 
  speed: 1
--- !u!1 &1139017406
GameObject:
  m_ObjectHideFlags: 0
  m_PrefabParentObject: {fileID: 0}
  m_PrefabInternal: {fileID: 0}
  serializedVersion: 4
  m_Component:
  - 4: {fileID: 1139017407}
  m_Layer: 0
  m_Name: FrontFarLeftFirePoint
  m_TagString: Untagged
  m_Icon: {fileID: 0}
  m_NavMeshLayer: 0
  m_StaticEditorFlags: 0
  m_IsActive: 1
--- !u!4 &1139017407
Transform:
  m_ObjectHideFlags: 0
  m_PrefabParentObject: {fileID: 0}
  m_PrefabInternal: {fileID: 0}
  m_GameObject: {fileID: 1139017406}
  m_LocalRotation: {x: 0, y: 0, z: 0, w: 1}
  m_LocalPosition: {x: -.0963374898, y: .0467390232, z: .0249938965}
  m_LocalScale: {x: 1.33333337, y: 1.33333337, z: 1.33333337}
  m_Children: []
  m_Father: {fileID: 247017688}
  m_RootOrder: 2
<<<<<<< HEAD
--- !u!1 &1233180718
GameObject:
  m_ObjectHideFlags: 0
  m_PrefabParentObject: {fileID: 0}
  m_PrefabInternal: {fileID: 0}
  serializedVersion: 4
  m_Component:
  - 4: {fileID: 1233180719}
  m_Layer: 0
  m_Name: MagnetSpawnInnerLeft
  m_TagString: Untagged
  m_Icon: {fileID: 0}
  m_NavMeshLayer: 0
  m_StaticEditorFlags: 0
  m_IsActive: 1
--- !u!4 &1233180719
Transform:
  m_ObjectHideFlags: 0
  m_PrefabParentObject: {fileID: 0}
  m_PrefabInternal: {fileID: 0}
  m_GameObject: {fileID: 1233180718}
  m_LocalRotation: {x: 0, y: 0, z: 0, w: 1}
  m_LocalPosition: {x: .28880614, y: .993601322, z: 0}
  m_LocalScale: {x: 1, y: 1, z: 1}
  m_Children: []
  m_Father: {fileID: 1380526495}
  m_RootOrder: 10
=======
<<<<<<< HEAD
>>>>>>> e503ccde60498ca6ad7609b7a5bd917cf9295aeb
--- !u!1 &1380526493
GameObject:
  m_ObjectHideFlags: 0
  m_PrefabParentObject: {fileID: 0}
  m_PrefabInternal: {fileID: 0}
  serializedVersion: 4
  m_Component:
  - 4: {fileID: 1380526495}
  - 114: {fileID: 1380526494}
  m_Layer: 0
  m_Name: TyrianController
  m_TagString: Untagged
  m_Icon: {fileID: 0}
  m_NavMeshLayer: 0
  m_StaticEditorFlags: 0
  m_IsActive: 1
--- !u!114 &1380526494
MonoBehaviour:
  m_ObjectHideFlags: 0
  m_PrefabParentObject: {fileID: 0}
  m_PrefabInternal: {fileID: 0}
  m_GameObject: {fileID: 1380526493}
  m_Enabled: 1
  m_EditorHideFlags: 0
  m_Script: {fileID: 11500000, guid: c676079c4d4574ecaafea178a7946394, type: 3}
  m_Name: 
  m_EditorClassIdentifier: 
  magnet: {fileID: 100000, guid: 45c47fae919c3432981a017315330481, type: 2}
  wheatly: {fileID: 100000, guid: b9d0ebf173f5a47579e0f6559c5788a8, type: 2}
  cam: {fileID: 504615127}
--- !u!4 &1380526495
Transform:
  m_ObjectHideFlags: 0
  m_PrefabParentObject: {fileID: 0}
  m_PrefabInternal: {fileID: 0}
  m_GameObject: {fileID: 1380526493}
  m_LocalRotation: {x: 0, y: 0, z: 0, w: 1}
  m_LocalPosition: {x: -.525256574, y: .489468664, z: -37.9934082}
  m_LocalScale: {x: 1, y: 1, z: 1}
  m_Children:
  - {fileID: 504615128}
  - {fileID: 1009094246}
  - {fileID: 950677713}
  - {fileID: 952101470}
  - {fileID: 247017688}
  - {fileID: 1752509729}
<<<<<<< HEAD
  - {fileID: 2046295319}
  - {fileID: 1565727307}
  - {fileID: 1583106740}
  - {fileID: 1703471842}
  - {fileID: 1233180719}
=======
  - {fileID: 1565727307}
>>>>>>> e503ccde60498ca6ad7609b7a5bd917cf9295aeb
  m_Father: {fileID: 0}
  m_RootOrder: 0
--- !u!1 &1565727306
GameObject:
  m_ObjectHideFlags: 0
  m_PrefabParentObject: {fileID: 0}
  m_PrefabInternal: {fileID: 0}
  serializedVersion: 4
  m_Component:
  - 4: {fileID: 1565727307}
  - 33: {fileID: 1565727310}
  - 65: {fileID: 1565727309}
  - 23: {fileID: 1565727308}
  - 114: {fileID: 1565727311}
  m_Layer: 0
  m_Name: Boundries
  m_TagString: Untagged
  m_Icon: {fileID: 0}
  m_NavMeshLayer: 0
  m_StaticEditorFlags: 0
  m_IsActive: 1
--- !u!4 &1565727307
Transform:
  m_ObjectHideFlags: 0
  m_PrefabParentObject: {fileID: 0}
  m_PrefabInternal: {fileID: 0}
  m_GameObject: {fileID: 1565727306}
  m_LocalRotation: {x: 0, y: 0, z: 0, w: 1}
<<<<<<< HEAD
  m_LocalPosition: {x: .603263676, y: -.102808982, z: -.00805664062}
  m_LocalScale: {x: 3.03545499, y: 1.68415952, z: 1}
  m_Children: []
  m_Father: {fileID: 1380526495}
  m_RootOrder: 7
=======
  m_LocalPosition: {x: .614593267, y: -.496624738, z: -.00805664062}
  m_LocalScale: {x: 2.21265602, y: .978749633, z: 1}
  m_Children: []
  m_Father: {fileID: 1380526495}
  m_RootOrder: 6
>>>>>>> e503ccde60498ca6ad7609b7a5bd917cf9295aeb
--- !u!23 &1565727308
Renderer:
  m_ObjectHideFlags: 0
  m_PrefabParentObject: {fileID: 0}
  m_PrefabInternal: {fileID: 0}
  m_GameObject: {fileID: 1565727306}
  m_Enabled: 0
  m_CastShadows: 1
  m_ReceiveShadows: 1
  m_LightmapIndex: 255
  m_LightmapTilingOffset: {x: 1, y: 1, z: 0, w: 0}
  m_Materials:
  - {fileID: 10302, guid: 0000000000000000f000000000000000, type: 0}
  m_SubsetIndices: 
  m_StaticBatchRoot: {fileID: 0}
  m_UseLightProbes: 0
  m_LightProbeAnchor: {fileID: 0}
  m_ScaleInLightmap: 1
  m_SortingLayerID: 0
  m_SortingOrder: 0
--- !u!65 &1565727309
BoxCollider:
  m_ObjectHideFlags: 0
  m_PrefabParentObject: {fileID: 0}
  m_PrefabInternal: {fileID: 0}
  m_GameObject: {fileID: 1565727306}
  m_Material: {fileID: 0}
  m_IsTrigger: 1
  m_Enabled: 1
  serializedVersion: 2
  m_Size: {x: 1, y: 1, z: 1}
  m_Center: {x: 0, y: 0, z: 0}
--- !u!33 &1565727310
MeshFilter:
  m_ObjectHideFlags: 0
  m_PrefabParentObject: {fileID: 0}
  m_PrefabInternal: {fileID: 0}
  m_GameObject: {fileID: 1565727306}
  m_Mesh: {fileID: 10202, guid: 0000000000000000e000000000000000, type: 0}
--- !u!114 &1565727311
MonoBehaviour:
  m_ObjectHideFlags: 0
  m_PrefabParentObject: {fileID: 0}
  m_PrefabInternal: {fileID: 0}
  m_GameObject: {fileID: 1565727306}
  m_Enabled: 1
  m_EditorHideFlags: 0
  m_Script: {fileID: 11500000, guid: 8f80f9ed294644b62bc99fd709b96dcd, type: 3}
  m_Name: 
  m_EditorClassIdentifier: 
<<<<<<< HEAD
--- !u!1 &1583106739
GameObject:
  m_ObjectHideFlags: 0
  m_PrefabParentObject: {fileID: 0}
  m_PrefabInternal: {fileID: 0}
  serializedVersion: 4
  m_Component:
  - 4: {fileID: 1583106740}
  m_Layer: 0
  m_Name: MagnetSplineRootOne
  m_TagString: Untagged
  m_Icon: {fileID: 0}
  m_NavMeshLayer: 0
  m_StaticEditorFlags: 0
  m_IsActive: 1
--- !u!4 &1583106740
Transform:
  m_ObjectHideFlags: 0
  m_PrefabParentObject: {fileID: 0}
  m_PrefabInternal: {fileID: 0}
  m_GameObject: {fileID: 1583106739}
  m_LocalRotation: {x: 0, y: 0, z: 0, w: 1}
  m_LocalPosition: {x: -.526226223, y: .210531324, z: 0}
  m_LocalScale: {x: 1, y: 1, z: 1}
  m_Children:
  - {fileID: 824651696}
  - {fileID: 1944500464}
  - {fileID: 378049619}
  m_Father: {fileID: 1380526495}
  m_RootOrder: 8
--- !u!1 &1703471841
GameObject:
  m_ObjectHideFlags: 0
  m_PrefabParentObject: {fileID: 0}
  m_PrefabInternal: {fileID: 0}
  serializedVersion: 4
  m_Component:
  - 4: {fileID: 1703471842}
  m_Layer: 0
  m_Name: MagnetSpawnInnerRight
  m_TagString: Untagged
  m_Icon: {fileID: 0}
  m_NavMeshLayer: 0
  m_StaticEditorFlags: 0
  m_IsActive: 1
--- !u!4 &1703471842
Transform:
  m_ObjectHideFlags: 0
  m_PrefabParentObject: {fileID: 0}
  m_PrefabInternal: {fileID: 0}
  m_GameObject: {fileID: 1703471841}
  m_LocalRotation: {x: 0, y: 0, z: 0, w: 1}
  m_LocalPosition: {x: .949354768, y: .993601322, z: 0}
  m_LocalScale: {x: 1, y: 1, z: 1}
  m_Children: []
  m_Father: {fileID: 1380526495}
  m_RootOrder: 9
=======
>>>>>>> e503ccde60498ca6ad7609b7a5bd917cf9295aeb
--- !u!1 &1752509728
GameObject:
  m_ObjectHideFlags: 0
  m_PrefabParentObject: {fileID: 0}
  m_PrefabInternal: {fileID: 0}
  serializedVersion: 4
  m_Component:
  - 4: {fileID: 1752509729}
  m_Layer: 0
<<<<<<< HEAD
  m_Name: MagnetSpawnLeft
=======
  m_Name: MagnetSpawn
>>>>>>> e503ccde60498ca6ad7609b7a5bd917cf9295aeb
  m_TagString: Untagged
  m_Icon: {fileID: 0}
  m_NavMeshLayer: 0
  m_StaticEditorFlags: 0
  m_IsActive: 1
--- !u!4 &1752509729
Transform:
  m_ObjectHideFlags: 0
  m_PrefabParentObject: {fileID: 0}
  m_PrefabInternal: {fileID: 0}
  m_GameObject: {fileID: 1752509728}
  m_LocalRotation: {x: 0, y: 0, z: 0, w: 1}
<<<<<<< HEAD
  m_LocalPosition: {x: -.526226223, y: .993601799, z: 0}
=======
  m_LocalPosition: {x: -.526226223, y: .210531324, z: 0}
>>>>>>> e503ccde60498ca6ad7609b7a5bd917cf9295aeb
  m_LocalScale: {x: 1, y: 1, z: 1}
  m_Children: []
  m_Father: {fileID: 1380526495}
  m_RootOrder: 5
<<<<<<< HEAD
--- !u!1 &1944500463
GameObject:
  m_ObjectHideFlags: 0
  m_PrefabParentObject: {fileID: 0}
  m_PrefabInternal: {fileID: 0}
  serializedVersion: 4
  m_Component:
  - 4: {fileID: 1944500464}
  m_Layer: 0
  m_Name: 1.2
  m_TagString: Untagged
  m_Icon: {fileID: 0}
  m_NavMeshLayer: 0
  m_StaticEditorFlags: 0
  m_IsActive: 1
--- !u!4 &1944500464
Transform:
  m_ObjectHideFlags: 0
  m_PrefabParentObject: {fileID: 0}
  m_PrefabInternal: {fileID: 0}
  m_GameObject: {fileID: 1944500463}
  m_LocalRotation: {x: 0, y: 0, z: 0, w: 1}
  m_LocalPosition: {x: 0, y: -1.15637684, z: 0}
  m_LocalScale: {x: 1, y: 1, z: 1}
  m_Children: []
  m_Father: {fileID: 1583106740}
  m_RootOrder: 1
--- !u!1 &2046295318
GameObject:
  m_ObjectHideFlags: 0
  m_PrefabParentObject: {fileID: 0}
  m_PrefabInternal: {fileID: 0}
  serializedVersion: 4
  m_Component:
  - 4: {fileID: 2046295319}
  m_Layer: 0
  m_Name: MagnetSpawnRight
  m_TagString: Untagged
  m_Icon: {fileID: 0}
  m_NavMeshLayer: 0
  m_StaticEditorFlags: 0
  m_IsActive: 1
--- !u!4 &2046295319
Transform:
  m_ObjectHideFlags: 0
  m_PrefabParentObject: {fileID: 0}
  m_PrefabInternal: {fileID: 0}
  m_GameObject: {fileID: 2046295318}
  m_LocalRotation: {x: 0, y: 0, z: 0, w: 1}
  m_LocalPosition: {x: 1.93485188, y: .993601322, z: 0}
  m_LocalScale: {x: 1, y: 1, z: 1}
  m_Children: []
  m_Father: {fileID: 1380526495}
  m_RootOrder: 6
=======
=======
>>>>>>> aca9c1a62e7cc9472c711fb062eaf94aa770cb64
>>>>>>> e503ccde60498ca6ad7609b7a5bd917cf9295aeb
